  <section class="extMenu1 menu cid-rRIRsh7Jhj" once="menu" id="extMenu7-2" data-sortbtn="btn-primary">
    <nav class="navbar navbar-dropdown align-items-center navbar-fixed-top navbar-toggleable-sm">
        <div class="menu-content-top" id="topLine">
            <div class="col-md-5">
            <div class="menu-logo">
                <div class="navbar-brand">
                    <span class="navbar-logo">
                        <a href="index.html">
                            <img src="assets/images/original.jpg" alt="Mobirise" title="" style="height: 7.6rem;">
                        </a>
                    </span>  
                </div>
            </div>
            </div>
            <div class="menu-content-right" style="width: 100%;">
                <div class="col-md-5"> 

                </div>
                <div class="col-md-3">
                    <div class="info-widget"> 
                        <!-- <span class="widget-icon mbr-iconfont socicon-whatsapp socicon" style="color: rgb(69, 235, 98); fill: rgb(69, 235, 98);"></span> -->
                        <!-- <div class="d-flex flex-row align-items-center">
                            <img src="assets/images/line.png" style="height: 70px;" class="mr-3" alt="">
                            <i class="far fa-clock fa-2x" style="color:#d3dbd4;font-weight: 100;"></i>
                            <div class="widget-content display-4 pl-3">
                                <p class="widget-title mbr-fonts-style display-4">Segunda a Sexta feira de 08:00 as 18:00</p>
                                <p class="widget-text mbr-fonts-style display-4">Finais de semana: Fechado</p>
                            </div>
                        </div> -->
                    <div class="info-widget">
                        <span class="widget-icon mbr-iconfont socicon-whatsapp socicon" style="color: rgb(69, 235, 98); fill: rgb(69, 235, 98);"></span>
                        <div class="widget-content display-4">
                            <p class="widget-title mbr-fonts-style display-4">(31)99417-0055</p>
                            <p class="widget-text mbr-fonts-style display-4">(31)99773-9060</p>
                        </div>
                    </div>
                    </div>
                </div>
                <div class="col-md-4">
                    <div class="info-widget"> 
                        <div class="d-flex flex-row align-items-center">
                            <img src="assets/images/line.png" style="height: 70px;" class="mr-3" alt="">
                            <i class="far fa-envelope fa-2x" style="color:#d3dbd4;font-weight: 100;"></i>
                            <div class="widget-content display-4 pl-3">
                                <p class="widget-title mbr-fonts-style display-4">contato@negociosdeluxo.com.br</p>
                            </div>
                        </div>
                    </div>
                </div>
            </div>
            <button class="navbar-toggler " type="button" data-toggle="collapse" data-target="#navbarSupportedContent, #topLine" aria-controls="navbarSupportedContent" aria-expanded="false" aria-label="Toggle navigation">
                <div class="hamburger">
                    <span></span>
                    <span></span>
                    <span></span>
                    <span></span>
                </div>
            </button>
        </div>
        <div class="menu-bottom">
            <div class="collapse navbar-collapse" id="navbarSupportedContent">
                <ul class="navbar-nav nav-dropdown js-float-line nav-right" data-app-modern-menu="true"><li class="nav-item">
                        <a class="nav-link link mbr-black text-white display-4" href="condominios.html">
                            Condominios</a>
                    </li>
                    <li class="nav-item">
                        <a class="nav-link link mbr-black text-white display-4" href="comprar.html">
                            Comprar</a>
                    </li>
                    <li class="nav-item">
                        <a class="nav-link link mbr-black text-white display-4" href="alugar.html">
                            Alugar</a>
                    </li>
                    <li class="nav-item">
                        <a class="nav-link link mbr-black text-white display-4" href="Lançamento.html">
                            Lançamentos</a>
                    </li>
                    <li>
                        <a class="nav-link link mbr-black text-white display-4" href="predio.html">Predio</a>
                    </li>
                    <li>
                        <a class="nav-link link mbr-black text-white display-4" href="vilaserra.html">Vila Da Serra</a>
                    </li>
                    <li class="nav-item">
                        <a class="nav-link link mbr-black text-white display-4" href="#">
                            Vídeos</a>
                    </li><li class="nav-item"><a class="nav-link link mbr-black text-white display-4" href="#">
                            Imóveis Favoritos</a></li><li class="nav-item dropdown"><a class="nav-link link mbr-black text-white dropdown-toggle display-4" href="#" data-toggle="dropdown-submenu" aria-expanded="false">
                            MENU</a><div class="dropdown-menu"><a class="mbr-black text-white dropdown-item display-4" href="empresa.html">A empresa</a>
                                
                                <a class="mbr-black text-white dropdown-item display-4" href="encontre_seu_imovel_aqui.html">Encontramos o  imóvel para você</a>
                                
                                <a class="mbr-black text-white dropdown-item display-4" href="fale-conosco.html">Contato</a></div></li></ul>
                
            </div>
            <!-- <a class="mbr-black text-white dropdown-item display-4" href="page3.html">Anuncie conosco</a><a class="mbr-black text-white dropdown-item display-4" href="#">Busca pelo mapa</a> -->
        </div>
    </nav>
</section>

<section class="header2 cid-rStRXE0ce2" id="extHeader5-1j" data-sortbtn="btn-primary">

    <div class="container">
        <div class="row">
            <div class="mbr-white col-md-12">
                
            </div>
        </div>
    </div>
    
</section>

<section class="extHeader cid-rStVi1KEaW" id="extHeader13-1l">

    <div class="mbr-overlay" style="opacity: 0.6; background-color: rgb(0, 0, 0);">
    </div>

    <div class="container">
        <div class="row justify-content-center align-items-center p-5">
            <div class="mbr-white col-md-12 col-lg-7 py-lg-0 justify-content-end">
                <div class="typed-text pb-3 align-right display-1">
                    <span class="mbr-section-subtitle mbr-fonts-style display-1">Imóveis de luxo com atendimento 
                    <br>&nbsp;</span>
                    <span>
                      <span class="animated-element mbr-bold" data-speed="50" data-word1="premium" data-word2="para você." data-word3="Lorem" data-word4="Lorem" data-word5="Ipsum" data-words="2">
                      </span>
                    </span>
                </div>
            </div>
            <div class="col-lg-6 py-lg-0 pb-2">
                <!-- <div class="mbr-figure">
                    <img src="assets/images/15.png" alt="Mobirise" title="">
                </div> -->
            </div>
        </div>
        <div class="col-lg-12 col-md-12 col-sm-12 justify-content-center align-items-center p-3">
            <section class="header2 cid-rStYVq5WBB" id="header2-1p" style="padding: 5px;">   
                <div class="row justify-content-center">
                    <div class="media-container-column col-lg-12 col-md-10 col-sm-12 align-center" data-form-type="formoid">
                    <!--Formbuilder Form-->
                        <form action="#/" method="POST" class="mbr-form form-with-styler" data-form-title="Mobirise Form"><input type="hidden" name="email" data-form-email="true" value="TDKDeBUHTKJhWqYYOSr90G66y0KNiaIoKeaW7mC/YYuLk4SHtdfTh50t7aGdZXP42ABEjZqyKiOJvqI0Fr1eUE4NbZKu9LQHyzWO2j5I3DPDdTwTWhyaN0IZMgoN6AQm.0ya60Zv3ZIxN/5cEBCOz+G1fsXYWM7+FKvtVX7DEdItQ5j5TPUifE8o8CM93SoOXY1hb3DOgwXIMmXmFuS7p8UKM+JjW0DNygr0p/0M5Jsp/GVojwaYtiqJGVMS7bCiC">
                        <div class="row">
                            <div hidden="hidden" data-form-alert="" class="alert alert-success col-12"></div>
                            <div hidden="hidden" data-form-alert-danger="" class="alert alert-danger col-12"> </div>
                        </div>
                        <div class="dragArea row">
                        <div class="col-lg-2 col-md-12 col-sm-12 form-group" data-for="Comprar">
                            <select name="Comprar" data-form-field="Type" class="form-control display-7" id="Compar-header2-1p">
                            <option value="Comprar">Comprar</option>
                            <option value="Alugar">Alugar</option>
                            </select>
                        </div>
                        <div class="col-lg-2 col-md-12 col-sm-12 form-group" data-for="estado">
                            <select name="estado" data-form-field="Status" class="form-control display-7" id="estado-header2-1p">
                            <option value="MG">BA</option>
                            <option value="MG">MG</option>
                            <option value="MG">RJ</option>
                            </select>
                        </div>
                        <div data-for="Cidade" class="col-lg-2 col-md-12 col-sm-12 form-group">
                        <select name="Cidade" data-form-field="Cidade" class="form-control display-7" id="Cidade-header2-1p">
                        <option value="Belo Horizonte">Belo Horizonte</option>
                        <option value="Brumadinho">Brumadinho</option>
                        <option value="Contagem">Contagem</option>
                        <option value="Formiga">Formiga</option>
                        <option value="Itabirito">Itabirito</option>
                        <option value="Nova Lima">Nova Lima</option>
                        <option value="Rio Acima">Rio Acima</option>
                        <option value="Vespasiano">Vespasiano</option>
                        </select>
                        </div>
                        <div data-for="imoveis" class="col-lg-2 col-md-12 col-sm-12 form-group">
                        <select name="imoveis" data-form-field="imoveis" class="form-control display-7" id="imoveis-header2-1p">
                        <option value="Andar">Andar</option>
                        <option value="Apartamento">Apartamento</option>
                        <option value="Área privativa">Área privativa</option>
                        <option value="Casa">Casa</option>
                        <option value="Casa Comercial">Casa Comercial</option>
                        <option value="Casa em Condominio">Casa em Condominio</option>
                        <option value="Cobertura">Cobertura</option>
                        <option value="Flat">Flat</option>
                        <option value="Loja">Loja</option>
                        <option value="Lote">Lote</option>
                        <option value="Ponto Comercial">Ponto Comercial</option>
                        <option value="Sala">Sala</option>
                        </select>
                        </div>
                        <div data-for="Bairros" class="col-lg-2 col-md-12 col-sm-12 form-group">
                        <select name="Bairros" data-form-field="Bairros" class="form-control display-7" id="Bairros-header2-1p">
                        <option value="Bairros">Bairros</option>
                        <option value="Bandeirantes">Bandeirantes</option>
                        <option value="Belvedere">Belvedere</option>
                        <option value="Brúnas">Brúnas</option>
                        <option value="Buritis">Buritis</option>
                        <option value="Carmo">Carmo</option>
                        <option value="Centro">Centro</option>
                        <option value="Cidade Jardim">Cidade Jardim</option>
                        <option value="Estoril">Estoril</option>
                        <option value="Floresta">Floresta</option>
                        <option value="Funcionarios">Funcionarios</option>
                        <option value="Gutierrez">Gutierrez</option>
                        <option value="Havaí">Havaí</option>
                        <option value="Jardim Atlântico">Jardim Atlântico</option>
                        <option value="Lourdes">Lourdes</option>
                        <option value="Luxemburgo">Luxemburgo</option>
                        <option value="Mangabeiras">Mangabeiras</option>
                        <option value="Prado">Prado</option>
                        <option value="Salgado Filho">Salgado Filho</option>
                        <option value="Santa Lúcia">Santa Lúcia</option>
                        <option value="Santo Agostinho">Santo Agostinho</option>
                        <option value="Santo Antônio">Santo Antônio</option>
                        <option value="São Bento">São Bento</option>
                        <option value="Savassi">Savassi</option>
                        <option value="Serra">Serra</option>
                        <option value="Sion">Sion</option>
                        </select>
                        </div>
                        <div class="col-lg-2 col-md-12 col-sm-12 input-group-btn">
                            <button type="submit" class="btn btn-primary" style="font-size: 1em;border-radius:0px;">Buscar</button>
                        </div>
                        <!-- <div class="col-lg-4 col-md-12 col-sm-12 form-group" data-for="buscarcodigo">
                        <input type="text" name="buscarcodigo" placeholder="Buscar por código" data-form-field="buscarcodigo" class="form-control display-7" value="" id="buscarcodigo-header2-1p">
                        </div> -->
                        </div>
                        </form><!--Formbuilder Form-->
                    </div>
                        </div>
            </section>
        </div>
    </div>
    
</section>

<section class="features7 cid-rTBzBwcOOP" id="features07-23" data-sortbtn="btn-primary" >
    <div class="container-fluid">
        <div class="row">
            <div class="col-md-1" ></div>
            <div class="col-md-10" >
                <h2>ENCONTRAMOS O IMÓVEL QUE VOCÊ PRECISA</h2>
                <p style="padding-top:20px;">Não encontrou o que procura? Nao tem problema, nós ajudamos você a encontrar o imóvel perfeito.</p>
                <p style="padding-bottom:20px;">Em 3 passos você preenche o formulário abaixo e nós retornaremos pra você com opções de imóveis dentro do seu perfil.</p>
            </div>
            <div class="col-md-1"></div>
        </div>
        <div class="row">
            <div class="col-md-1"></div>
            <div class="col-md-10" style="padding-top:20px; ">
                <form>
                    <div class="form-group">
                      <label for="exampleInputEmail1">Email address</label>
                      <input type="email" class="form-control" id="exampleInputEmail1" aria-describedby="emailHelp" placeholder="Enter email">
                      <small id="emailHelp" class="form-text text-muted">We'll never share your email with anyone else.</small>
                    </div>
                    <div class="form-group">
                      <label for="exampleInputPassword1">Password</label>
                      <input type="password" class="form-control" id="exampleInputPassword1" placeholder="Password">
                    </div>
                    <div class="form-check" style="padding-bottom:20px;">
                      <input type="checkbox" class="form-check-input" id="exampleCheck1">
                      <label class="form-check-label" for="exampleCheck1">Check me out</label>
                    </div>
                    <button type="submit" class="btn btn-primary">Submit</button>
                  </form>
            </div>
            <div class="col-md-1"></div>
        </div>
    </div>
</section>

<section class="extFooter cid-rROJXTsFX6" id="extFooter20-g" data-sortbtn="btn-primary">

    <div class="container">
        <div class="media-container-row content text-white">
            <div class="col-12 col-lg-4 col-md-4">
                <div class="media-wrap">
                    <a href="#/">
                        <img src="assets/images/negocios-de-luxo-logotipo-original-222x191.png" alt="Mobirise" title="" style="width: 150px;
                        height: auto">
                    </a>
                </div>
                <!-- <p class="mbr-fonts-style mbr-black logo-subtitle display-7">
                    O melhor que o luxo pode oferecer.</p> -->
            </div>
            <div class="col-12 col-lg-3 mbr-fonts-style mbr-black col-lg-4 col-md-4" style="padding-top: 57px;">
                <h5 class="pb-3 column-title display-5">Entre em contato</h5>
                <div class="contact-list display-7">
                    
                    
                <div class="list-item">
                        <!-- <span class="mbr-iconfont mbri-map-pin"></span>
                        <p>Avenida Luiz Paulo Franco, 1063 - Loja 06<br></p> -->
                    </div><div class="list-item">
                        <span class="mbr-iconfont socicon-whatsapp socicon" style="color: rgb(69, 235, 98); fill: rgb(69, 235, 98);"></span>
                        <!-- <p>(31)99417-0055</p>
                        <span class="mbr-iconfont socicon-whatsapp socicon" style="color: rgb(69, 235, 98); fill: rgb(69, 235, 98);"></span><p>99773-9060</p> -->
                        <div class="widget-content display-4">
                            <p class="widget-title mbr-fonts-style display-4">(31)99417-0055</p>
                            <p class="widget-text mbr-fonts-style display-4">(31)99773-9060</p>
                        </div>
                    </div>
                </div>
            </div>
            <div class="col-12 col-lg-3 mbr-fonts-style mbr-black col-lg-4 col-md-4" style="padding-top: 54.5px;">
                <h5 class="pb-3 column-title display-5">
                    Institucional</h5>
                <div class="mbr-text mbr-fonts-style display-7">
                    <ul class="list">
                        <li><a href="condominios.html">A empresa</a></li>
                        <li>Encontramos o imóvel para você</li>
                        <li><a href="fale-conosco.html">Contato</a></li>    
                    </ul>
                </div>
            </div>
            
        </div>

        <div class="footer-lower" >
            <div class="media-container-row">
                <div class="col-sm-12">
                    <hr>
                </div>
            </div>
            <div class="media-container-row mbr-black">
                <div class="col-sm-6 copyright">
                    <p class="mbr-fonts-style display-7">
                        © Copyright 2020 webajato - Todos os direitos reservados
                    </p>
                </div>
                <div class="col-md-6">
                    <div class="social-list align-right">
                        <div class="soc-item">
                            <!-- <a href="https://twitter.com/mobirise" target="_blank">
                                <span class="socicon-twitter socicon mbr-iconfont mbr-iconfont-social"></span>
                            </a> -->
                        </div>
                        <div class="soc-item">
                            <a href="https://www.facebook.com/pages/Mobirise/1616226671953247" target="_blank">
                                <span class="socicon-facebook socicon mbr-iconfont mbr-iconfont-social"></span>
                            </a>
                        </div>
                        <div class="soc-item">
                            <a href="https://www.youtube.com/c/mobirise" target="_blank">
                                <span class="socicon-youtube socicon mbr-iconfont mbr-iconfont-social"></span>
                            </a>
                        </div>
                        
                        
                        
                    </div>
                </div>
            </div>
        </div>

         <!-- Whatsapp Call -->
        <div class="whatsapp" style="position: fixed;
        bottom: 20px;
        right: 20px;">
            <a href="https://wa.me/5531999813151/?text=Olá%20estou%20no%20seu%20site%20e%20gostei%20dos%20imóveis,%20você%20pode%20me%20ajudar?" target="_blank"><img src="img/whatsapp.png" alt="Encomende seu imóvel" width="70px"></a>
        </div>
    </div>
</section>

Movimentação das peças, timer, movimentação dura das peças. Design(Mudar a cor, a textura).